<svg id="donut_small-24px" xmlns="http://www.w3.org/2000/svg" width="21" height="21" viewBox="0 0 21 21">
  <path id="Path_10" data-name="Path 10" d="M0,0H21V21H0Z" fill="none"/>
  <path id="Path_11" data-name="Path 11" d="M9.875,8.265V2a8.8,8.8,0,0,0,0,17.5V13.235a2.84,2.84,0,0,1-1.75-2.485A2.84,2.84,0,0,1,9.875,8.265Zm3.377,1.61H19.5A8.614,8.614,0,0,0,11.625,2V8.265A2.456,2.456,0,0,1,13.252,9.875Zm-1.627,3.36V19.5A8.614,8.614,0,0,0,19.5,11.625H13.253a2.456,2.456,0,0,1-1.627,1.61Z" transform="translate(-0.25 -0.25)" fill="#666"/>
</svg>
